tests/TB_top.vcd
$date
	Wed Jun  8 10:37:48 2022
$end
$version
	Icarus Verilog
$end
$timescale
	100us
$end
$scope module TB_Top $end
$var reg 1 ! clk $end
$var reg 32 " clk_count [31:0] $end
$var reg 1 # rst $end
$scope module UUT $end
$var wire 1 ! clk $end
$var wire 1 # rst $end
$var wire 1 $ pc_src $end
$var wire 7 % opcode [6:0] $end
$var wire 2 & mask_type [1:0] $end
$var wire 1 ' funct7_b5 $end
$var wire 3 ( funct3 [2:0] $end
$var wire 1 ) ext_type $end
$var wire 4 * alu_flags [3:0] $end
$var wire 4 + alu_control [3:0] $end
$var wire 2 , ResultSrc [1:0] $end
$var wire 1 - RegWrite $end
$var wire 1 . PCAdderSrc $end
$var wire 1 / MemWrite $end
$var wire 3 0 ImmSrc [2:0] $end
$var wire 1 1 ALUSrcB $end
$var wire 1 2 ALUSrcA $end
$scope module controlpath $end
$var wire 1 $ pc_src $end
$var wire 7 3 opcode [6:0] $end
$var wire 2 4 mask_type [1:0] $end
$var wire 1 5 jump $end
$var wire 1 ' funct7_b5 $end
$var wire 3 6 funct3 [2:0] $end
$var wire 1 ) ext_type $end
$var wire 1 7 branch $end
$var wire 4 8 alu_flags [3:0] $end
$var wire 4 9 alu_control [3:0] $end
$var wire 2 : ResultSrc [1:0] $end
$var wire 1 - RegWrite $end
$var wire 1 . PCAdderSrc $end
$var wire 1 / MemWrite $end
$var wire 3 ; ImmSrc [2:0] $end
$var wire 1 1 ALUSrcB $end
$var wire 1 2 ALUSrcA $end
$var wire 2 < ALUOp [1:0] $end
$scope module aluDecoder $end
$var wire 1 = RtypeSub $end
$var wire 1 > op_b5 $end
$var wire 1 ' funct7_b5 $end
$var wire 3 ? funct3 [2:0] $end
$var wire 2 @ alu_op [1:0] $end
$var reg 4 A alu_control [3:0] $end
$upscope $end
$scope module branchDecoder $end
$var wire 1 $ pc_src $end
$var wire 1 B zero $end
$var wire 1 C overflow $end
$var wire 1 D neg $end
$var wire 1 5 jump $end
$var wire 3 E funct3 [2:0] $end
$var wire 1 F carry $end
$var wire 1 7 branch $end
$var wire 4 G alu_flags [3:0] $end
$var reg 1 H branch_o $end
$upscope $end
$scope module dataMaskDecoder $end
$var wire 2 I mask_type [1:0] $end
$var wire 3 J funct3 [2:0] $end
$var wire 1 ) ext_type $end
$upscope $end
$scope module opcodeDecoder $end
$var wire 7 K op [6:0] $end
$var wire 2 L ResultSrc [1:0] $end
$var wire 1 - RegWrite $end
$var wire 1 . PCAdderSrc $end
$var wire 1 / MemWrite $end
$var wire 1 5 Jump $end
$var wire 3 M ImmSrc [2:0] $end
$var wire 1 7 Branch $end
$var wire 1 1 ALUSrcB $end
$var wire 1 2 ALUSrcA $end
$var wire 2 N ALUOp [1:0] $end
$var reg 14 O controls [13:0] $end
$upscope $end
$upscope $end
$scope module datapath $end
$var wire 1 2 ALUSrcA $end
$var wire 1 1 ALUSrcB $end
$var wire 3 P ImmSrc [2:0] $end
$var wire 1 / MemWrite $end
$var wire 1 . PCAdderSrc $end
$var wire 1 - RegWrite $end
$var wire 2 Q ResultSrc [1:0] $end
$var wire 4 R alu_control [3:0] $end
$var wire 1 ! clk $end
$var wire 1 ) ext_type $end
$var wire 2 S mask_type [1:0] $end
$var wire 1 $ pc_src $end
$var wire 1 # rst $end
$var wire 32 T reg_out_2 [31:0] $end
$var wire 32 U reg_out_1 [31:0] $end
$var wire 32 V reg_in [31:0] $end
$var wire 32 W pc_p_4 [31:0] $end
$var wire 32 X pc_ext [31:0] $end
$var wire 32 Y pc_adder_in_1 [31:0] $end
$var wire 32 Z pc [31:0] $end
$var wire 7 [ opcode [6:0] $end
$var wire 32 \ instr [31:0] $end
$var wire 32 ] imm_ext [31:0] $end
$var wire 1 ' funct7_b5 $end
$var wire 3 ^ funct3 [2:0] $end
$var wire 32 _ data_out [31:0] $end
$var wire 32 ` alu_result [31:0] $end
$var wire 32 a alu_in_2 [31:0] $end
$var wire 32 b alu_in_1 [31:0] $end
$var wire 4 c alu_flags [3:0] $end
$scope module alu $end
$var wire 4 d alu_control [3:0] $end
$var wire 1 e carry $end
$var wire 1 f isAddSub $end
$var wire 1 g isSub $end
$var wire 1 h neg $end
$var wire 1 i overflow $end
$var wire 1 j zero $end
$var wire 33 k sum [32:0] $end
$var wire 32 l condinvb [31:0] $end
$var wire 32 m b [31:0] $end
$var wire 4 n alu_flags [3:0] $end
$var wire 32 o a [31:0] $end
$var reg 32 p result [31:0] $end
$upscope $end
$scope module aluInputA $end
$var wire 1 2 s $end
$var wire 32 q y [31:0] $end
$var wire 32 r d1 [31:0] $end
$var wire 32 s d0 [31:0] $end
$upscope $end
$scope module aluInputB $end
$var wire 1 1 s $end
$var wire 32 t y [31:0] $end
$var wire 32 u d1 [31:0] $end
$var wire 32 v d0 [31:0] $end
$upscope $end
$scope module dataMemory $end
$var wire 32 w i_addr [31:0] $end
$var wire 1 ! i_clk $end
$var wire 1 ) i_ext_type $end
$var wire 2 x i_mask_type [1:0] $end
$var wire 1 / i_we $end
$var wire 32 y i_wd [31:0] $end
$var wire 32 z i_addr_p3 [31:0] $end
$var wire 32 { i_addr_p2 [31:0] $end
$var wire 32 | i_addr_p1 [31:0] $end
$var reg 32 } o_rd [31:0] $end
$scope begin $ivl_for_loop3 $end
$var integer 32 ~ i [31:0] $end
$upscope $end
$upscope $end
$scope module dataOutMux $end
$var wire 32 !" d0 [31:0] $end
$var wire 32 "" d1 [31:0] $end
$var wire 2 #" s [1:0] $end
$var wire 32 $" d3 [31:0] $end
$var wire 32 %" d2 [31:0] $end
$var reg 32 &" y [31:0] $end
$scope begin sel $end
$upscope $end
$upscope $end
$scope module immExtender $end
$var wire 3 '" immsrc [2:0] $end
$var wire 25 (" instr [31:7] $end
$var reg 32 )" immext [31:0] $end
$upscope $end
$scope module instrBlock $end
$var wire 1 ! clk $end
$var wire 32 *" pc_ext [31:0] $end
$var wire 1 $ pc_src $end
$var wire 1 # rst $end
$var wire 32 +" pc_p_4 [31:0] $end
$var wire 32 ," instr [31:0] $end
$var reg 32 -" pc [31:0] $end
$scope module instrMemory $end
$var wire 32 ." a [31:0] $end
$var wire 32 /" rd [31:0] $end
$scope begin $ivl_for_loop1 $end
$var integer 32 0" i [31:0] $end
$upscope $end
$upscope $end
$upscope $end
$scope module pcAdderInputA $end
$var wire 32 1" d0 [31:0] $end
$var wire 1 . s $end
$var wire 32 2" y [31:0] $end
$var wire 32 3" d1 [31:0] $end
$upscope $end
$scope module registerFile $end
$var wire 5 4" a1 [4:0] $end
$var wire 5 5" a2 [4:0] $end
$var wire 5 6" a3 [4:0] $end
$var wire 1 ! clk $end
$var wire 32 7" wd3 [31:0] $end
$var wire 1 - we3 $end
$var wire 32 8" rd2 [31:0] $end
$var wire 32 9" rd1 [31:0] $end
$scope begin $ivl_for_loop2 $end
$var integer 32 :" i [31:0] $end
$upscope $end
$upscope $end
$upscope $end
$upscope $end
$scope begin $ivl_for_loop0 $end
$var integer 32 ;" i [31:0] $end
$upscope $end
$upscope $end
$enddefinitions $end
#0
$dumpvars
b0 ;"
b100000 :"
bx 9"
bx 8"
bx 7"
bx 6"
bx 5"
bx 4"
bx 3"
bx 2"
bx 1"
b1000000 0"
bx /"
bx ."
bx -"
bx ,"
bx +"
bx *"
bx )"
bx ("
bx '"
bx &"
bx %"
bx $"
bx #"
bx ""
bx !"
b100000000000 ~
bx }
bx |
bx {
bx z
bx y
bx x
bx w
bx v
bx u
bx t
bx s
bx r
bx q
bx p
bx o
bx n
bx m
bx l
bx k
xj
xi
xh
xg
xf
xe
bx d
bx c
bx b
bx a
bx `
bx _
bx ^
bx ]
bx \
bx [
bx Z
bx Y
bx X
bx W
bx V
bx U
bx T
bx S
bx R
bx Q
bx P
bx O
bx N
bx M
bx L
bx K
bx J
bx I
0H
bx G
xF
bx E
xD
xC
xB
bx A
bx @
bx ?
x>
x=
bx <
bx ;
bx :
bx 9
bx 8
x7
bx 6
x5
bx 4
bx 3
x2
x1
bx 0
x/
x.
x-
bx ,
bx +
bx *
x)
bx (
x'
bx &
bx %
x$
1#
b0 "
1!
$end
#10
b1 "
0!
#20
b100000 ;"
b10 "
1!
#30
b11 "
0!
#40
b100000 ;"
b100 "
1!
#50
0C
0F
0D
0i
0e
b0 k
b0 l
0h
0f
0g
1B
b0 V
b0 &"
b0 7"
b1 *
b1 8
b1 G
b1 c
b1 n
1j
b11 z
b10 {
b1 |
b0 `
b0 p
b0 w
b0 !"
b0 a
b0 m
b0 t
0$
b100 +
b100 9
b100 A
b100 R
b100 d
b0 _
b0 }
b0 ""
1-
02
01
0/
b0 ,
b0 :
b0 L
b0 Q
b0 #"
07
05
b10 <
b10 @
b10 N
b0 Y
b0 2"
b0 b
b0 o
b0 q
0=
1)
b0 &
b0 4
b0 I
b0 S
b0 x
1>
b1xxxx000000010 O
b0 T
b0 v
b0 y
b0 8"
b0 U
b0 s
b0 3"
b0 9"
0'
b100 (
b100 6
b100 ?
b100 E
b100 J
b100 ^
b110011 %
b110011 3
b110011 K
b110011 [
b100001010000010 ("
b10 6"
b10 5"
b10 4"
b1000010100000100110011 \
b1000010100000100110011 ,"
b1000010100000100110011 /"
b100 W
b100 %"
b100 +"
b0 Z
b0 r
b0 -"
b0 ."
b0 1"
b101 "
0!
0#
#60
b100000 ;"
b110 "
1!
#70
b111 "
0!
#80
b100000 ;"
b1000 "
1!
#90
b1001 "
0!
#100
b100000 ;"
b1010 "
1!
#110
b1011 "
0!
#120
b100000 ;"
b1100 "
1!
#130
b1101 "
0!
#140
b100000 ;"
b1110 "
1!
#150
b1111 "
0!
1#
#160
0C
0i
0F
0D
0e
0h
0B
b0 _
b0 }
b0 ""
b10000000000 V
b10000000000 &"
b10000000000 7"
b0 *
b0 8
b0 G
b0 c
b0 n
0j
b10000000011 z
b10000000010 {
b10000000001 |
b10000000000 `
b10000000000 p
b10000000000 w
b10000000000 !"
1f
b10000000000 k
b10000000000 l
b10000000000 ]
b10000000000 u
b10000000000 $"
b10000000000 )"
b10000000000 a
b10000000000 m
b10000000000 t
b0 0
b0 ;
b0 M
b0 P
b0 '"
11
0)
b0 +
b0 9
b0 A
b0 R
b0 d
0>
b1000x010000010 O
1'
b0 (
b0 6
b0 ?
b0 E
b0 J
b0 ^
b10011 %
b10011 3
b10011 K
b10011 [
b100000000000001000000010 ("
b0 5"
b1000000000000010000000100010011 \
b1000000000000010000000100010011 ,"
b1000000000000010000000100010011 /"
b0x00 Y
b0x00 2"
b1000 W
b1000 %"
b1000 +"
b100 Z
b100 r
b100 -"
b100 ."
b100 1"
b100000 ;"
b10000 "
1!
#170
b10001 "
0!
#180
b100000 l
b0 _
b0 }
b0 ""
b100000 a
b100000 m
b100000 t
b10000100000 V
b10000100000 &"
b10000100000 7"
b10000100011 z
b10000100010 {
b10000100001 |
b10000100000 `
b10000100000 p
b10000100000 w
b10000100000 !"
b100000 ]
b100000 u
b100000 $"
b100000 )"
b10000100000 k
b10000000000 b
b10000000000 o
b10000000000 q
0'
b1000000001000001000 ("
b1000 6"
b10000000000 U
b10000000000 s
b10000000000 3"
b10000000000 9"
b10000000010000010000010011 \
b10000000010000010000010011 ,"
b10000000010000010000010011 /"
b0x000000x000 Y
b0x000000x000 2"
b1100 W
b1100 %"
b1100 +"
b1000 Z
b1000 r
b1000 -"
b1000 ."
b1000 1"
b100000 ;"
b10010 "
1!
#190
b10011 "
0!
#200
xC
xF
xi
xD
xe
xf
xg
xh
xB
bx _
bx }
bx ""
bx *
bx 8
bx G
bx c
bx n
xj
b0 V
b0 &"
b0 7"
bx +
bx 9
bx A
bx R
bx d
bx l
bx z
bx {
bx |
bx `
bx p
bx w
bx !"
b100 0
b100 ;
b100 M
b100 P
b100 '"
x2
x1
b11 ,
b11 :
b11 L
b11 Q
b11 #"
bx <
bx @
bx N
b0 a
b0 m
b0 t
bx k
b0xx00 b
b0xx00 o
b0xx00 q
1>
b1100xxx01100xx O
b0 ]
b0 u
b0 $"
b0 )"
b0 U
b0 s
b0 3"
b0 9"
b110111 %
b110111 3
b110111 K
b110111 [
b1111 ("
b1111 6"
b0 4"
b11110110111 \
b11110110111 ,"
b11110110111 /"
b0xx00 Y
b0xx00 2"
b10000 W
b10000 %"
b10000 +"
b1100 Z
b1100 r
b1100 -"
b1100 ."
b1100 1"
b100000 ;"
b10100 "
1!
#210
b10101 "
0!
#220
0C
0i
0F
1D
0e
1h
0B
b10 *
b10 8
b10 G
b10 c
b10 n
0j
b10 z
b1 {
b0 |
b11111111111111111111111111111111 `
b11111111111111111111111111111111 p
b11111111111111111111111111111111 w
b11111111111111111111111111111111 !"
b11111111111111111111111111111111 k
b11111111111111111111111111111111 l
1f
0g
b0 +
b0 9
b0 A
b0 R
b0 d
b0 0
b0 ;
b0 M
b0 P
b0 '"
02
11
b0 ,
b0 :
b0 L
b0 Q
b0 #"
b10 <
b10 @
b10 N
b11111111111111111111111111111111 a
b11111111111111111111111111111111 m
b11111111111111111111111111111111 t
b11111111111111111111111111111111 V
b11111111111111111111111111111111 &"
b11111111111111111111111111111111 7"
0>
b1000x010000010 O
b11111111111111111111111111111111 ]
b11111111111111111111111111111111 u
b11111111111111111111111111111111 $"
b11111111111111111111111111111111 )"
1'
b10011 %
b10011 3
b10011 K
b10011 [
b1111111111110111100001111 ("
b11111 5"
b1111 4"
b11111111111101111000011110010011 \
b11111111111101111000011110010011 ,"
b11111111111101111000011110010011 /"
b0x0000 Y
b0x0000 2"
b0 b
b0 o
b0 q
b10100 W
b10100 %"
b10100 +"
b10000 Z
b10000 r
b10000 -"
b10000 ."
b10000 1"
b100000 ;"
b10110 "
1!
#230
b10111 "
0!
#240
1F
0D
0g
0B
1e
0h
b11111111111111111111111111101100 l
b100 *
b100 8
b100 G
b100 c
b100 n
0j
b0 _
b0 }
b0 ""
1=
0-
b1 0
b1 ;
b1 M
b1 P
b1 '"
1/
bx ,
bx :
bx L
bx Q
bx #"
b0 <
b0 @
b0 N
b11111111111111111111111111101100 a
b11111111111111111111111111101100 m
b11111111111111111111111111101100 t
bx V
bx &"
bx 7"
b10000001111 z
b10000001110 {
b10000001101 |
b10000001100 `
b10000001100 p
b10000001100 w
b10000001100 !"
b10 &
b10 4
b10 I
b10 S
b10 x
b0 +
b0 9
b0 A
b0 R
b0 d
1>
b1x011xx0000 O
b11111111111111111111111111101100 ]
b11111111111111111111111111101100 u
b11111111111111111111111111101100 $"
b11111111111111111111111111101100 )"
b11111111111111111111111111111111 T
b11111111111111111111111111111111 v
b11111111111111111111111111111111 y
b11111111111111111111111111111111 8"
b100000000000000000000010000001100 k
b10000100000 b
b10000100000 o
b10000100000 q
b10 (
b10 6
b10 ?
b10 E
b10 J
b10 ^
b100011 %
b100011 3
b100011 K
b100011 [
b1111111011110100001001100 ("
b1100 6"
b1111 5"
b1000 4"
b10000100000 U
b10000100000 s
b10000100000 3"
b10000100000 9"
b11111110111101000010011000100011 \
b11111110111101000010011000100011 ,"
b11111110111101000010011000100011 /"
b0x0000xx0x00 Y
b0x0000xx0x00 2"
b11000 W
b11000 %"
b11000 +"
b10100 Z
b10100 r
b10100 -"
b10100 ."
b10100 1"
b100000 ;"
b11000 "
1!
#250
b11001 "
0!
#260
b10000001111 z
b10000001110 {
b10000001101 |
b10000001100 `
b10000001100 p
b10000001100 w
b10000001100 !"
b11111111111111111111111111111111 V
b11111111111111111111111111111111 &"
b11111111111111111111111111111111 7"
b100000000000000000000010000001100 k
b11111111111111111111111111101100 l
0=
1-
b0 0
b0 ;
b0 M
b0 P
b0 '"
0/
b1 ,
b1 :
b1 L
b1 Q
b1 #"
b11111111111111111111111111101100 a
b11111111111111111111111111101100 m
b11111111111111111111111111101100 t
0>
b1000x010010000 O
b11111111111111111111111111101100 ]
b11111111111111111111111111101100 u
b11111111111111111111111111101100 $"
b11111111111111111111111111101100 )"
b0 T
b0 v
b0 y
b0 8"
b11 %
b11 3
b11 K
b11 [
b1111111011000100001001111 ("
b1111 6"
b1100 5"
b11111111111111111111111111111111 _
b11111111111111111111111111111111 }
b11111111111111111111111111111111 ""
b11111110110001000010011110000011 \
b11111110110001000010011110000011 ,"
b11111110110001000010011110000011 /"
b0x0000xxx000 Y
b0x0000xxx000 2"
b11100 W
b11100 %"
b11100 +"
b11000 Z
b11000 r
b11000 -"
b11000 ."
b11000 1"
b100000 ;"
b11010 "
1!
#270
b11011 "
0!
#280
b0 _
b0 }
b0 ""
b10000001011 z
b10000001010 {
b10000001001 |
b10000001000 `
b10000001000 p
b10000001000 w
b10000001000 !"
bx V
bx &"
bx 7"
b100000000000000000000010000001000 k
b11111111111111111111111111101000 l
1=
0-
b1 0
b1 ;
b1 M
b1 P
b1 '"
1/
bx ,
bx :
bx L
bx Q
bx #"
b11111111111111111111111111101000 a
b11111111111111111111111111101000 m
b11111111111111111111111111101000 t
1>
b1x011xx0000 O
b11111111111111111111111111101000 ]
b11111111111111111111111111101000 u
b11111111111111111111111111101000 $"
b11111111111111111111111111101000 )"
b11111111111111111111111111111111 T
b11111111111111111111111111111111 v
b11111111111111111111111111111111 y
b11111111111111111111111111111111 8"
b100011 %
b100011 3
b100011 K
b100011 [
b1111111011110100001001000 ("
b1000 6"
b1111 5"
b11111110111101000010010000100011 \
b11111110111101000010010000100011 ,"
b11111110111101000010010000100011 /"
b0x0000xxxx00 Y
b0x0000xxxx00 2"
b100000 W
b100000 %"
b100000 +"
b11100 Z
b11100 r
b11100 -"
b11100 ."
b11100 1"
b100000 ;"
b11100 "
1!
#290
b11101 "
0!
#300
b10000001111 z
b10000001110 {
b10000001101 |
b10000001100 `
b10000001100 p
b10000001100 w
b10000001100 !"
b11111111111111111111111111111111 V
b11111111111111111111111111111111 &"
b11111111111111111111111111111111 7"
b100000000000000000000010000001100 k
b11111111111111111111111111101100 l
0=
1-
b0 0
b0 ;
b0 M
b0 P
b0 '"
0/
b1 ,
b1 :
b1 L
b1 Q
b1 #"
b11111111111111111111111111101100 a
b11111111111111111111111111101100 m
b11111111111111111111111111101100 t
0>
b1000x010010000 O
b11111111111111111111111111101100 ]
b11111111111111111111111111101100 u
b11111111111111111111111111101100 $"
b11111111111111111111111111101100 )"
b0 T
b0 v
b0 y
b0 8"
b11 %
b11 3
b11 K
b11 [
b1111111011000100001001111 ("
b1111 6"
b1100 5"
b11111111111111111111111111111111 _
b11111111111111111111111111111111 }
b11111111111111111111111111111111 ""
b11111110110001000010011110000011 \
b11111110110001000010011110000011 ,"
b11111110110001000010011110000011 /"
b0x0000100000 Y
b0x0000100000 2"
b100100 W
b100100 %"
b100100 +"
b100000 Z
b100000 r
b100000 -"
b100000 ."
b100000 1"
b100000 ;"
b11110 "
1!
#310
b11111 "
0!
#320
b0 _
b0 }
b0 ""
b10000000111 z
b10000000110 {
b10000000101 |
b10000000100 `
b10000000100 p
b10000000100 w
b10000000100 !"
bx V
bx &"
bx 7"
b100000000000000000000010000000100 k
b11111111111111111111111111100100 l
1=
0-
b1 0
b1 ;
b1 M
b1 P
b1 '"
1/
bx ,
bx :
bx L
bx Q
bx #"
b11111111111111111111111111100100 a
b11111111111111111111111111100100 m
b11111111111111111111111111100100 t
1>
b1x011xx0000 O
b11111111111111111111111111100100 ]
b11111111111111111111111111100100 u
b11111111111111111111111111100100 $"
b11111111111111111111111111100100 )"
b11111111111111111111111111111111 T
b11111111111111111111111111111111 v
b11111111111111111111111111111111 y
b11111111111111111111111111111111 8"
b100011 %
b100011 3
b100011 K
b100011 [
b1111111011110100001000100 ("
b100 6"
b1111 5"
b11111110111101000010001000100011 \
b11111110111101000010001000100011 ,"
b11111110111101000010001000100011 /"
b0x0000100x00 Y
b0x0000100x00 2"
b101000 W
b101000 %"
b101000 +"
b100100 Z
b100100 r
b100100 -"
b100100 ."
b100100 1"
b100000 ;"
b100000 "
1!
#330
b100001 "
0!
#340
b10000000110 z
b10000000101 {
b10000000100 |
b10000000011 `
b10000000011 p
b10000000011 w
b10000000011 !"
b100000000000000000000010000000011 k
b11111111111111111111111111100011 l
b11111111111111111111111111100011 a
b11111111111111111111111111100011 m
b11111111111111111111111111100011 t
b0 &
b0 4
b0 I
b0 S
b0 x
b11111111111111111111111111100011 ]
b11111111111111111111111111100011 u
b11111111111111111111111111100011 $"
b11111111111111111111111111100011 )"
b0 T
b0 v
b0 y
b0 8"
b0 (
b0 6
b0 ?
b0 E
b0 J
b0 ^
b1111111000000100000000011 ("
b11 6"
b0 5"
b0 _
b0 }
b0 ""
b11111110000001000000000110100011 \
b11111110000001000000000110100011 ,"
b11111110000001000000000110100011 /"
b0x000010x000 Y
b0x000010x000 2"
b101100 W
b101100 %"
b101100 +"
b101000 Z
b101000 r
b101000 -"
b101000 ."
b101000 1"
b100000 ;"
b100010 "
1!
#350
b100011 "
0!
#360
xC
xi
xF
xD
xf
xg
xe
xh
xB
bx _
bx }
bx ""
b1011100 X
b1011100 *"
b110000 V
b110000 &"
b110000 7"
1$
bx l
bx *
bx 8
bx G
bx c
bx n
xj
bx z
bx {
bx |
bx `
bx p
bx w
bx !"
bx +
bx 9
bx A
bx R
bx d
1-
b11 0
b11 ;
b11 M
b11 P
b11 '"
0.
x2
x1
0/
b10 ,
b10 :
b10 L
b10 Q
b10 #"
15
bx <
bx @
bx N
b0xx0000 a
b0xx0000 m
b0xx0000 t
bx k
b0x0xx00 b
b0x0xx00 o
b0x0xx00 q
0=
b10110xx01001xx O
b110000 ]
b110000 u
b110000 $"
b110000 )"
b0 U
b0 s
b0 3"
b0 9"
0'
b1101111 %
b1101111 3
b1101111 K
b1101111 [
b1100000000000000000 ("
b0 6"
b10000 5"
b0 4"
b11000000000000000001101111 \
b11000000000000000001101111 ,"
b11000000000000000001101111 /"
b101100 Y
b101100 2"
b110000 W
b110000 %"
b110000 +"
b101100 Z
b101100 r
b101100 -"
b101100 ."
b101100 1"
b100000 ;"
b100100 "
1!
#370
b100101 "
0!
#380
0C
0i
1F
0D
1e
0h
0B
b0 _
b0 }
b0 ""
b100 *
b100 8
b100 G
b100 c
b100 n
0j
b10000000110 z
b10000000101 {
b10000000100 |
b10000000011 `
b10000000011 p
b10000000011 w
b10000000011 !"
b100000000000000000000010000000011 k
b11111111111111111111111111100011 l
1f
0g
0$
b0 +
b0 9
b0 A
b0 R
b0 d
b0 0
b0 ;
b0 M
b0 P
b0 '"
x.
02
11
b1 ,
b1 :
b1 L
b1 Q
b1 #"
05
b0 <
b0 @
b0 N
b11111111111111111111111111100011 a
b11111111111111111111111111100011 m
b11111111111111111111111111100011 t
0>
b1000x010010000 O
b11111111111111111111111111100011 ]
b11111111111111111111111111100011 u
b11111111111111111111111111100011 $"
b11111111111111111111111111100011 )"
b10000100000 U
b10000100000 s
b10000100000 3"
b10000100000 9"
1'
b11 %
b11 3
b11 K
b11 [
b1111111000110100000001110 ("
b1110 6"
b11 5"
b1000 4"
b0 V
b0 &"
b0 7"
b11111110001101000000011100000011 \
b11111110001101000000011100000011 ,"
b11111110001101000000011100000011 /"
bx X
bx *"
b0x000xxxxx00 Y
b0x000xxxxx00 2"
b10000100000 b
b10000100000 o
b10000100000 q
b1100000 W
b1100000 %"
b1100000 +"
b1011100 Z
b1011100 r
b1011100 -"
b1011100 ."
b1011100 1"
b100000 ;"
b100110 "
1!
#390
b100111 "
0!
#400
0F
0e
0f
0D
1B
0h
b1 *
b1 8
b1 G
b1 c
b1 n
1j
b0 _
b0 }
b0 ""
b0 V
b0 &"
b0 7"
b100 +
b100 9
b100 A
b100 R
b100 d
b11111111111111111111111111111111 l
b11 z
b10 {
b1 |
b0 `
b0 p
b0 w
b0 !"
bx 0
bx ;
bx M
bx P
bx '"
01
b0 ,
b0 :
b0 L
b0 Q
b0 #"
b10 <
b10 @
b10 N
b11111111111111111111111111111111 a
b11111111111111111111111111111111 m
b11111111111111111111111111111111 t
b111111111111111111111111111111110 k
b11111111111111111111111111111111 b
b11111111111111111111111111111111 o
b11111111111111111111111111111111 q
1)
1>
b1xxxx000000010 O
bx ]
bx u
bx $"
bx )"
b11111111111111111111111111111111 T
b11111111111111111111111111111111 v
b11111111111111111111111111111111 y
b11111111111111111111111111111111 8"
b11111111111111111111111111111111 U
b11111111111111111111111111111111 s
b11111111111111111111111111111111 3"
b11111111111111111111111111111111 9"
0'
b100 (
b100 6
b100 ?
b100 E
b100 J
b100 ^
b110011 %
b110011 3
b110011 K
b110011 [
b11110111110001111 ("
b1111 6"
b1111 5"
b1111 4"
b111101111100011110110011 \
b111101111100011110110011 ,"
b111101111100011110110011 /"
bx11xxxxx Y
bx11xxxxx 2"
b1100100 W
b1100100 %"
b1100100 +"
b1100000 Z
b1100000 r
b1100000 -"
b1100000 ."
b1100000 1"
b100000 ;"
b101000 "
1!
#410
b101001 "
0!
#420
0C
0i
0F
0e
0D
1f
0h
b11 ]
b11 u
b11 $"
b11 )"
0B
b11 V
b11 &"
b11 7"
b0 _
b0 }
b0 ""
b0 0
b0 ;
b0 M
b0 P
b0 '"
11
b11 l
b0 *
b0 8
b0 G
b0 c
b0 n
0j
b110 z
b101 {
b100 |
b11 `
b11 p
b11 w
b11 !"
0)
b0 +
b0 9
b0 A
b0 R
b0 d
0>
b1000x010000010 O
b11 k
b0 b
b0 o
b0 q
b11 a
b11 m
b11 t
b0 (
b0 6
b0 ?
b0 E
b0 J
b0 ^
b10011 %
b10011 3
b10011 K
b10011 [
b110111100001111 ("
b11 5"
b0 U
b0 s
b0 3"
b0 9"
b0 T
b0 v
b0 y
b0 8"
b1101111000011110010011 \
b1101111000011110010011 ,"
b1101111000011110010011 /"
b0xx00x00 Y
b0xx00x00 2"
b1101000 W
b1101000 %"
b1101000 +"
b1100100 Z
b1100100 r
b1100100 -"
b1100100 ."
b1100100 1"
b100000 ;"
b101010 "
1!
#430
b101011 "
0!
#440
0F
0D
0e
0h
b0 _
b0 }
b0 ""
1f
1g
1$
b110000 X
b110000 *"
1H
b11111111111111111111111111111111 l
0B
0-
b10 0
b10 ;
b10 M
b10 P
b10 '"
0.
01
bx ,
bx :
bx L
bx Q
bx #"
17
b1 <
b1 @
b1 N
b0 a
b0 m
b0 t
bx V
bx &"
bx 7"
b0 *
b0 8
b0 G
b0 c
b0 n
0j
b110 z
b101 {
b100 |
b11 `
b11 p
b11 w
b11 !"
1=
1)
b1 &
b1 4
b1 I
b1 S
b1 x
b1 +
b1 9
b1 A
b1 R
b1 d
1>
b100000xx1001 O
b11111111111111111111111111001000 ]
b11111111111111111111111111001000 u
b11111111111111111111111111001000 $"
b11111111111111111111111111001000 )"
b100000000000000000000000000000011 k
b11 b
b11 o
b11 q
1'
b101 (
b101 6
b101 ?
b101 E
b101 J
b101 ^
b1100011 %
b1100011 3
b1100011 K
b1100011 [
b1111110011100111110101001 ("
b1001 6"
b1110 5"
b11 U
b11 s
b11 3"
b11 9"
b11111100111001111101010011100011 \
b11111100111001111101010011100011 ,"
b11111100111001111101010011100011 /"
b1101000 Y
b1101000 2"
b1101100 W
b1101100 %"
b1101100 +"
b1101000 Z
b1101000 r
b1101000 -"
b1101000 ."
b1101000 1"
b100000 ;"
b101100 "
1!
#450
b101101 "
0!
#460
1F
1e
b11111111111111111111111111111111 _
b11111111111111111111111111111111 }
b11111111111111111111111111111111 ""
0g
0B
b100 *
b100 8
b100 G
b100 c
b100 n
0j
b11111111111111111111111111101000 l
b11111111111111111111111111111111 V
b11111111111111111111111111111111 &"
b11111111111111111111111111111111 7"
b0 +
b0 9
b0 A
b0 R
b0 d
b10000001011 z
b10000001010 {
b10000001001 |
b10000001000 `
b10000001000 p
b10000001000 w
b10000001000 !"
0$
0=
1-
b0 0
b0 ;
b0 M
b0 P
b0 '"
x.
11
b1 ,
b1 :
b1 L
b1 Q
b1 #"
07
b0 <
b0 @
b0 N
b11111111111111111111111111101000 a
b11111111111111111111111111101000 m
b11111111111111111111111111101000 t
b100000000000000000000010000001000 k
b10000100000 b
b10000100000 o
b10000100000 q
0)
b10 &
b10 4
b10 I
b10 S
b10 x
0H
0>
b1000x010010000 O
b11111111111111111111111111101000 ]
b11111111111111111111111111101000 u
b11111111111111111111111111101000 $"
b11111111111111111111111111101000 )"
b10000100000 T
b10000100000 v
b10000100000 y
b10000100000 8"
b10000100000 U
b10000100000 s
b10000100000 3"
b10000100000 9"
b10 (
b10 6
b10 ?
b10 E
b10 J
b10 ^
b11 %
b11 3
b11 K
b11 [
b1111111010000100001001111 ("
b1111 6"
b1000 5"
b1000 4"
b11111110100001000010011110000011 \
b11111110100001000010011110000011 ,"
b11111110100001000010011110000011 /"
bx X
bx *"
b0x00001x0000 Y
b0x00001x0000 2"
b110100 W
b110100 %"
b110100 +"
b110000 Z
b110000 r
b110000 -"
b110000 ."
b110000 1"
b100000 ;"
b101110 "
1!
#470
b101111 "
0!
